<?xml version="1.0" encoding="UTF-8" standalone="no"?>
<!-- Created with Fritzing (http://www.fritzing.org/) -->

<svg
   xmlns:dc="http://purl.org/dc/elements/1.1/"
   xmlns:cc="http://creativecommons.org/ns#"
   xmlns:rdf="http://www.w3.org/1999/02/22-rdf-syntax-ns#"
   xmlns:svg="http://www.w3.org/2000/svg"
   xmlns="http://www.w3.org/2000/svg"
   xmlns:sodipodi="http://sodipodi.sourceforge.net/DTD/sodipodi-0.dtd"
   xmlns:inkscape="http://www.inkscape.org/namespaces/inkscape"
   version="1.2"
   x="0in"
   y="0in"
   width="100%"
   height="100%"
   viewBox="0 0 303.744 141.993"
   id="svg937"
   sodipodi:docname="relay-board.svg"
   inkscape:version="0.92.1 r15371">
  <metadata
     id="metadata943">
    <rdf:RDF>
      <cc:Work
         rdf:about="">
        <dc:format>image/svg+xml</dc:format>
        <dc:type
           rdf:resource="http://purl.org/dc/dcmitype/StillImage" />
      </cc:Work>
    </rdf:RDF>
  </metadata>
  <defs
     id="defs941" />
  <sodipodi:namedview
     pagecolor="#ffffff"
     bordercolor="#666666"
     borderopacity="1"
     objecttolerance="10"
     gridtolerance="10"
     guidetolerance="10"
     inkscape:pageopacity="0"
     inkscape:pageshadow="2"
     inkscape:window-width="640"
     inkscape:window-height="480"
     id="namedview939"
     showgrid="true"
     inkscape:zoom="4.4019871"
     inkscape:cx="157.71014"
     inkscape:cy="68.312507"
     inkscape:current-layer="svg937">
    <inkscape:grid
       type="xygrid"
       id="grid481" />
  </sodipodi:namedview>
  <g
     partID="854244950"
     id="g23"
     transform="matrix(0.93983666,0,0,0.91642868,6.6885297,6.4056792)">
    <g
       transform="translate(126.523,61.3743)"
       id="g21">
      <g
         transform="matrix(0,1,1,0,0,0)"
         id="g19">
        <g
           id="schematic">
          <line
             y2="3.96"
             class="other"
             y1="3.96"
             x1="20.150101"
             x2="21.9501"
             id="line2"
             style="stroke:#000000;stroke-width:0.72000301;stroke-linecap:round" />
          <line
             y2="0.36000001"
             class="other"
             y1="3.96"
             x1="7.5500202"
             x2="20.150101"
             id="line4"
             style="stroke:#000000;stroke-width:0.72000301;stroke-linecap:round" />
          <circle
             class="other"
             cx="7.5500202"
             cy="3.96"
             r="0.360001"
             id="circle6"
             style="fill:none;stroke:#000000;stroke-width:1.15199995" />
          <circle
             class="other"
             cx="21.9501"
             cy="3.96"
             r="0.360001"
             id="circle8"
             style="fill:none;stroke:#000000;stroke-width:1.15199995" />
          <line
             connectorname="1"
             y2="3.96"
             class="pin"
             y1="3.96"
             id="connector0pin"
             x1="0.35000101"
             x2="7.5500202"
             style="stroke:#787878;stroke-width:0.700001;stroke-linecap:round" />
          <g
             class="terminal"
             height="0.000283465"
             y="3.96"
             x="0.350001"
             width="0.000283466"
             id="connector0terminal"
             style="fill:none;stroke:none;stroke-width:0" />
          <text
             font-size="2.50001"
             class="text"
             y="2.9099901"
             x="3.9500101"
             id="text12"
             style="font-size:2.50001001px;font-family:'Droid Sans';text-anchor:middle;fill:#8c8c8c;stroke:none;stroke-width:0">1</text>
          <line
             connectorname="2"
             y2="3.96"
             class="pin"
             y1="3.96"
             id="connector2pin"
             x1="29.1502"
             x2="21.9501"
             style="stroke:#787878;stroke-width:0.700001;stroke-linecap:round" />
          <g
             class="terminal"
             height="0.000283465"
             y="3.96"
             x="29.1502"
             width="0.000283466"
             id="connector2terminal"
             style="fill:none;stroke:none;stroke-width:0" />
          <text
             font-size="2.50001"
             class="text"
             y="2.9099901"
             x="25.5501"
             id="text16"
             style="font-size:2.50001001px;font-family:'Droid Sans';text-anchor:middle;fill:#8c8c8c;stroke:none;stroke-width:0">3</text>
        </g>
      </g>
    </g>
  </g>
  <g
     partID="854195950"
     id="g37"
     transform="matrix(1.3012722,0,0,0.91642868,-95.09747,6.4056792)">
    <g
       transform="translate(281.664,14.9041)"
       id="g35">
      <g
         transform="scale(1,-1)"
         id="g33">
        <g
           id="g31">
          <rect
             height="7.1999998"
             y="0"
             x="0"
             width="3.5999999"
             id="rect25"
             style="fill:none;stroke:none;stroke-width:0" />
          <g
             height="0.0072"
             y="3.6"
             x="0"
             width="0.0072"
             id="g27"
             style="fill:none;stroke:none;stroke-width:0" />
          <polygon
             points="21.96,0.12 21.96,7.08 3.6,7.08 0.12,3.6 3.6,0.12 "
             id="polygon29"
             style="fill:#ffffff;stroke:#000000;stroke-width:0.23999999" />
        </g>
      </g>
    </g>
  </g>
  <g
     partID="854195930"
     id="g51"
     transform="matrix(1.0207607,0,0,0.91642868,4.2820278,6.4056792)">
    <g
       transform="translate(29.6872,14.9281)"
       id="g49">
      <g
         transform="scale(-1)"
         id="g47">
        <g
           id="g45">
          <rect
             height="7.1999998"
             y="0"
             x="0"
             width="3.5999999"
             id="rect39"
             style="fill:none;stroke:none;stroke-width:0" />
          <g
             height="0.0072"
             y="3.6"
             x="0"
             width="0.0072"
             id="g41"
             style="fill:none;stroke:none;stroke-width:0" />
          <polygon
             points="18.96,0.12 18.96,7.08 3.6,7.08 0.12,3.6 3.6,0.12 "
             id="polygon43"
             style="fill:#ffffff;stroke:#000000;stroke-width:0.23999999" />
        </g>
      </g>
    </g>
  </g>
  <g
     partID="854167750"
     id="g65"
     transform="matrix(1.0325646,0,0,0.91642868,-16.097344,6.4056792)">
    <g
       transform="translate(245.671,7.69688)"
       id="g63">
      <g
         transform="scale(-1,1)"
         id="g61">
        <g
           id="g59">
          <rect
             height="7.1999998"
             y="0"
             x="0"
             width="3.5999999"
             id="rect53"
             style="fill:none;stroke:none;stroke-width:0" />
          <g
             height="0.0072"
             y="3.6"
             x="0"
             width="0.0072"
             id="g55"
             style="fill:none;stroke:none;stroke-width:0" />
          <polygon
             points="10.96,0.12 10.96,7.08 3.6,7.08 0.12,3.6 3.6,0.12 "
             id="polygon57"
             style="fill:#ffffff;stroke:#000000;stroke-width:0.23999999" />
        </g>
      </g>
    </g>
  </g>
  <g
     partID="854167730"
     id="g79"
     transform="matrix(1.0325646,0,0,0.91642868,-16.097344,6.4056792)">
    <g
       transform="translate(245.671,0.49688)"
       id="g77">
      <g
         transform="scale(-1,1)"
         id="g75">
        <g
           id="g73">
          <rect
             height="7.1999998"
             y="0"
             x="0"
             width="3.5999999"
             id="rect67"
             style="fill:none;stroke:none;stroke-width:0" />
          <g
             height="0.0072"
             y="3.6"
             x="0"
             width="0.0072"
             id="g69"
             style="fill:none;stroke:none;stroke-width:0" />
          <polygon
             points="10.96,0.12 10.96,7.08 3.6,7.08 0.12,3.6 3.6,0.12 "
             id="polygon71"
             style="fill:#ffffff;stroke:#000000;stroke-width:0.23999999" />
        </g>
      </g>
    </g>
  </g>
  <g
     partID="854167670"
     id="g91"
     transform="matrix(1.0789312,0,0,0.91642868,-2.440287,6.4056792)">
    <g
       transform="translate(65.6792,7.72088)"
       id="g89">
      <g
         id="g87">
        <rect
           height="7.1999998"
           y="0"
           x="0"
           width="3.5999999"
           id="rect81"
           style="fill:none;stroke:none;stroke-width:0" />
        <g
           height="0.0072"
           y="3.6"
           x="0"
           width="0.0072"
           id="g83"
           style="fill:none;stroke:none;stroke-width:0" />
        <polygon
           points="10.96,0.12 10.96,7.08 3.6,7.08 0.12,3.6 3.6,0.12 "
           id="polygon85"
           style="fill:#ffffff;stroke:#000000;stroke-width:0.23999999" />
      </g>
    </g>
  </g>
  <g
     partID="854167620"
     id="g103"
     transform="matrix(1.0789312,0,0,0.91642868,-2.4404004,6.4056792)">
    <g
       transform="translate(65.68,0.52088)"
       id="g101">
      <g
         id="g99">
        <rect
           height="7.1999998"
           y="0"
           x="0"
           width="3.5999999"
           id="rect93"
           style="fill:none;stroke:none;stroke-width:0" />
        <g
           height="0.0072"
           y="3.6"
           x="0"
           width="0.0072"
           id="g95"
           style="fill:none;stroke:none;stroke-width:0" />
        <polygon
           points="10.96,0.12 10.96,7.08 3.6,7.08 0.12,3.6 3.6,0.12 "
           id="polygon97"
           style="fill:#ffffff;stroke:#000000;stroke-width:0.23999999" />
      </g>
    </g>
  </g>
  <g
     partID="854195970"
     id="g115"
     transform="matrix(1.0333564,0,0,0.91642868,2.5670867,6.4056792)">
    <g
       transform="translate(21.9992,36.5209)"
       id="g113">
      <g
         id="g111">
        <rect
           height="7.1999998"
           y="0"
           x="18.472799"
           width="3.5999999"
           id="rect105"
           style="fill:none;stroke:none;stroke-width:0" />
        <g
           height="0.0072"
           y="3.6"
           x="22.08"
           width="0.0072"
           id="g107"
           style="fill:none;stroke:none;stroke-width:0" />
        <polygon
           points="0.12,0.12 0.12,7.08 18.48,7.08 21.96,3.6 18.48,0.12 "
           id="polygon109"
           style="fill:#ffffff;stroke:#000000;stroke-width:0.23999999" />
      </g>
    </g>
  </g>
  <g
     partID="854195990"
     id="g127"
     transform="matrix(0.97991216,0,0,0.91642868,4.8824106,6.4056792)">
    <g
       transform="translate(0,43.7209)"
       id="g125">
      <g
         id="g123">
        <rect
           height="7.1999998"
           y="0"
           x="41.472801"
           width="3.5999999"
           id="rect117"
           style="fill:none;stroke:none;stroke-width:0" />
        <g
           height="0.0072"
           y="3.6"
           x="45.08"
           width="0.0072"
           id="g119"
           style="fill:none;stroke:none;stroke-width:0" />
        <polygon
           points="0.12,0.12 0.12,7.08 41.48,7.08 44.96,3.6 41.48,0.12 "
           id="polygon121"
           style="fill:#ffffff;stroke:#000000;stroke-width:0.23999999" />
      </g>
    </g>
  </g>
  <g
     partID="854133890"
     id="g173"
     transform="matrix(0.93983666,0,0,0.91642868,6.6885297,6.4056792)">
    <g
       transform="translate(141.872,119.601)"
       id="g171">
      <g
         transform="scale(-1)"
         id="g169">
        <g
           id="g167">
          <line
             y2="14.677"
             y1="14.677"
             x1="7.7870002"
             x2="4.1880002"
             id="line129"
             style="fill:none;stroke:#000000;stroke-width:0.69999999;stroke-linecap:round" />
          <line
             y2="14.677"
             y1="14.677"
             x1="4.1880002"
             x2="0.58700001"
             id="line131"
             style="fill:none;stroke:#000000;stroke-width:0.69999999;stroke-linecap:round" />
          <polygon
             points="4.188,14.677 0.587,7.477 4.188,7.477 7.787,7.477 "
             id="polygon133"
             style="fill:#ffffff;stroke:#000000;stroke-width:0.69999999;stroke-linecap:round" />
          <line
             y2="14.677"
             y1="7.4770002"
             x1="4.1880002"
             x2="4.1880002"
             id="line135"
             style="fill:none;stroke:#000000;stroke-width:0.44999999;stroke-linecap:round" />
          <line
             y2="14.677"
             y1="21.875999"
             id="line137"
             x1="4.1880002"
             x2="4.1880002"
             style="fill:none;stroke:#787878;stroke-width:0.69999999;stroke-linecap:round" />
          <g
             height="0.001"
             y="21.876"
             x="4.188"
             width="0.001"
             id="g139"
             style="fill:none" />
          <g
             transform="translate(3.429,6.4262)"
             id="g151">
            <g
               id="g149">
              <g
                 transform="rotate(-90)"
                 id="g147">
                <g
                   id="g145">
                  <g
                     transform="translate(-12.6912,-0.1726)"
                     id="g143">
                    <text
                       font-size="2"
                       id="text141"
                       style="font-size:2px;font-family:'Droid Sans';fill:#787878">2</text>
                  </g>
                </g>
              </g>
            </g>
          </g>
          <line
             y2="7.4770002"
             y1="0.27599999"
             id="connector1pin"
             x1="4.1880002"
             x2="4.1880002"
             style="fill:none;stroke:#787878;stroke-width:0.69999999;stroke-linecap:round" />
          <g
             height="0.001"
             y="0.276"
             x="4.188"
             width="0.001"
             id="connector1terminal"
             style="fill:none" />
          <g
             transform="translate(3.429,1.3462)"
             id="g165">
            <g
               id="g163">
              <g
                 transform="rotate(-90)"
                 id="g161">
                <g
                   id="g159">
                  <g
                     transform="translate(-3.3708,-0.1726)"
                     id="g157">
                    <text
                       font-size="2"
                       id="text155"
                       style="font-size:2px;font-family:'Droid Sans';fill:#787878">1</text>
                  </g>
                </g>
              </g>
            </g>
          </g>
        </g>
      </g>
    </g>
  </g>
  <g
     partID="854134350"
     id="g209"
     transform="matrix(0.93983666,0,0,0.91642868,6.6885297,6.4056792)">
    <g
       transform="translate(209.333,123.428)"
       id="g207">
      <g
         id="g205">
        <line
           y2="0.21600001"
           class="other"
           y1="3.096"
           x1="7.5500202"
           x2="8.6300297"
           id="line175"
           style="stroke:#000000;stroke-width:0.43200201;stroke-linecap:round" />
        <line
           y2="5.9759998"
           class="other"
           y1="0.21600001"
           x1="8.6300297"
           x2="10.43"
           id="line177"
           style="stroke:#000000;stroke-width:0.43200201;stroke-linecap:round" />
        <line
           y2="0.21600001"
           class="other"
           y1="5.9759998"
           x1="10.43"
           x2="12.23"
           id="line179"
           style="stroke:#000000;stroke-width:0.43200201;stroke-linecap:round" />
        <line
           y2="5.9759998"
           class="other"
           y1="0.21600001"
           x1="12.23"
           x2="14.03"
           id="line181"
           style="stroke:#000000;stroke-width:0.43200201;stroke-linecap:round" />
        <line
           y2="0.21600001"
           class="other"
           y1="5.9759998"
           x1="14.03"
           x2="15.8301"
           id="line183"
           style="stroke:#000000;stroke-width:0.43200201;stroke-linecap:round" />
        <line
           y2="5.9759998"
           class="other"
           y1="0.21600001"
           x1="15.8301"
           x2="17.6301"
           id="line185"
           style="stroke:#000000;stroke-width:0.43200201;stroke-linecap:round" />
        <line
           y2="0.21600001"
           class="other"
           y1="5.9759998"
           x1="17.6301"
           x2="19.430099"
           id="line187"
           style="stroke:#000000;stroke-width:0.43200201;stroke-linecap:round" />
        <line
           y2="5.9759998"
           class="other"
           y1="0.21600001"
           x1="19.430099"
           x2="21.230101"
           id="line189"
           style="stroke:#000000;stroke-width:0.43200201;stroke-linecap:round" />
        <line
           y2="3.096"
           class="other"
           y1="5.9759998"
           x1="21.230101"
           x2="21.9501"
           id="line191"
           style="stroke:#000000;stroke-width:0.43200201;stroke-linecap:round" />
        <line
           connectorname="2"
           y2="3.096"
           class="pin"
           y1="3.096"
           id="line193"
           x1="29.1502"
           x2="21.9501"
           style="stroke:#787878;stroke-width:0.700001;stroke-linecap:round" />
        <g
           class="terminal"
           height="0.000283465"
           y="3.096"
           x="29.1502"
           width="0.000283466"
           id="g195"
           style="fill:none;stroke:none;stroke-width:0" />
        <text
           font-size="2.50001"
           class="text"
           y="2.046"
           x="25.5501"
           id="text197"
           style="font-size:2.50001001px;font-family:'Droid Sans';text-anchor:middle;fill:#8c8c8c;stroke:none;stroke-width:0">2</text>
        <line
           connectorname="1"
           y2="3.096"
           class="pin"
           y1="3.096"
           id="line199"
           x1="0.35000101"
           x2="7.5500202"
           style="stroke:#787878;stroke-width:0.700001;stroke-linecap:round" />
        <g
           class="terminal"
           height="0.000283465"
           y="3.096"
           x="0.350001"
           width="0.000283466"
           id="g201"
           style="fill:none;stroke:none;stroke-width:0" />
        <text
           font-size="2.50001"
           class="text"
           y="2.046"
           x="3.9500101"
           id="text203"
           style="font-size:2.50001001px;font-family:'Droid Sans';text-anchor:middle;fill:#8c8c8c;stroke:none;stroke-width:0">1</text>
      </g>
    </g>
  </g>
  <g
     partID="854134380"
     id="g291"
     transform="matrix(0.93983666,0,0,0.91642868,6.6885297,6.4056792)">
    <g
       transform="translate(248.368,54.717)"
       id="g289">
      <g
         transform="scale(-1)"
         id="g287">
        <g
           id="g285">
          <g
             id="g213">
            <path
               d="M 13.5,14.966 H 9.9 c -0.193,0 -0.35,-0.156 -0.35,-0.35 0,-0.194 0.156,-0.35 0.35,-0.35 h 3.6 c 0.193,0 0.35,0.156 0.35,0.35 0,0.194 -0.156,0.35 -0.35,0.35 z"
               id="path211"
               inkscape:connector-curvature="0" />
          </g>
          <g
             id="g217">
            <path
               d="M 9.9,14.966 H 6.3 c -0.193,0 -0.35,-0.156 -0.35,-0.35 0,-0.194 0.157,-0.35 0.35,-0.35 h 3.6 c 0.193,0 0.35,0.156 0.35,0.35 0,0.194 -0.157,0.35 -0.35,0.35 z"
               id="path215"
               inkscape:connector-curvature="0" />
          </g>
          <g
             id="g223">
            <polygon
               points="9.9,14.616 6.3,7.416 9.9,7.416 13.5,7.416 "
               id="polygon219"
               style="fill:#ffffff" />
            <path
               d="M 9.9,15.398 5.734,7.066 h 8.333 z M 6.866,7.766 9.9,13.834 12.934,7.766 Z"
               id="path221"
               inkscape:connector-curvature="0" />
          </g>
          <g
             id="g227">
            <path
               d="m 9.9,14.841 c -0.124,0 -0.225,-0.101 -0.225,-0.225 v -7.2 c 0,-0.124 0.101,-0.225 0.225,-0.225 0.124,0 0.225,0.101 0.225,0.225 v 7.2 C 10.124,14.74 10.024,14.841 9.9,14.841 Z"
               id="path225"
               inkscape:connector-curvature="0" />
          </g>
          <g
             id="g231">
            <path
               d="m 1.8,12.141 c -0.058,0 -0.115,-0.021 -0.159,-0.065 -0.088,-0.088 -0.088,-0.23 0,-0.318 l 2.34,-2.341 c 0.088,-0.088 0.23,-0.088 0.318,0 0.088,0.088 0.088,0.23 0,0.318 l -2.34,2.341 C 1.915,12.12 1.858,12.141 1.8,12.141 Z"
               id="path229"
               inkscape:connector-curvature="0" />
          </g>
          <g
             id="g235">
            <path
               d="m 2.16,15.381 c -0.058,0 -0.115,-0.021 -0.159,-0.065 -0.088,-0.088 -0.088,-0.23 0,-0.318 l 2.34,-2.34 c 0.088,-0.088 0.23,-0.088 0.318,0 0.088,0.088 0.088,0.23 0,0.318 l -2.34,2.34 C 2.276,15.359 2.218,15.381 2.16,15.381 Z"
               id="path233"
               inkscape:connector-curvature="0" />
          </g>
          <g
             id="g239">
            <path
               d="m 9.9,22.166 c -0.193,0 -0.35,-0.156 -0.35,-0.35 v -7.2 c 0,-0.193 0.156,-0.35 0.35,-0.35 0.194,0 0.35,0.156 0.35,0.35 v 7.2 c -10e-4,0.194 -0.157,0.35 -0.35,0.35 z"
               id="path237"
               inkscape:connector-curvature="0"
               style="fill:#787878" />
          </g>
          <g
             id="g243">
            <rect
               height="0.001"
               y="21.816"
               x="9.8999996"
               width="0.001"
               id="rect241"
               style="fill:none" />
          </g>
          <g
             transform="translate(3.429,6.4262)"
             id="g255">
            <g
               id="g253">
              <g
                 transform="rotate(-90)"
                 id="g251">
                <g
                   id="g249">
                  <g
                     enable-background="new    "
                     id="g247">
                    <path
                       d="m -11.647,5.54 h -0.891 V 5.388 l 0.342,-0.372 c 0.049,-0.053 0.093,-0.101 0.131,-0.145 0.038,-0.044 0.071,-0.086 0.099,-0.128 0.026,-0.042 0.047,-0.084 0.062,-0.125 0.015,-0.043 0.021,-0.088 0.021,-0.138 0,-0.038 -0.005,-0.072 -0.017,-0.102 -0.012,-0.03 -0.027,-0.054 -0.047,-0.075 -0.021,-0.02 -0.045,-0.035 -0.073,-0.046 -0.028,-0.011 -0.06,-0.016 -0.094,-0.016 -0.062,0 -0.118,0.013 -0.167,0.038 -0.051,0.024 -0.098,0.057 -0.143,0.096 l -0.1,-0.116 c 0.025,-0.023 0.055,-0.046 0.084,-0.065 0.029,-0.021 0.063,-0.039 0.097,-0.054 0.034,-0.015 0.071,-0.026 0.109,-0.036 0.038,-0.008 0.079,-0.013 0.121,-0.013 0.063,0 0.119,0.009 0.169,0.026 0.051,0.018 0.094,0.043 0.129,0.076 0.035,0.032 0.063,0.072 0.082,0.119 0.019,0.048 0.028,0.101 0.028,0.16 0,0.056 -0.009,0.108 -0.026,0.158 -0.017,0.05 -0.041,0.1 -0.07,0.148 -0.031,0.048 -0.066,0.097 -0.109,0.146 -0.041,0.049 -0.087,0.1 -0.136,0.152 L -12.32,5.37 v 0.008 h 0.673 z"
                       id="path245"
                       inkscape:connector-curvature="0"
                       style="fill:#787878" />
                  </g>
                </g>
              </g>
            </g>
          </g>
          <g
             id="g259">
            <path
               d="m 9.9,7.766 c -0.193,0 -0.35,-0.157 -0.35,-0.35 v -7.2 c 0,-0.193 0.156,-0.35 0.35,-0.35 0.194,0 0.35,0.157 0.35,0.35 v 7.2 c -10e-4,0.193 -0.157,0.35 -0.35,0.35 z"
               id="path257"
               inkscape:connector-curvature="0"
               style="fill:#787878" />
          </g>
          <g
             id="g263">
            <polygon
               points="9.901,0.216 9.9,0.216 "
               id="polygon261"
               style="fill:none" />
          </g>
          <g
             transform="translate(3.429,1.3462)"
             id="g275">
            <g
               id="g273">
              <g
                 transform="rotate(-90)"
                 id="g271">
                <g
                   id="g269">
                  <g
                     enable-background="new    "
                     id="g267">
                    <path
                       d="M -2.616,5.54 H -2.788 V 4.648 c 0,-0.028 0,-0.058 0,-0.09 0,-0.032 10e-4,-0.063 0.002,-0.095 10e-4,-0.032 0.002,-0.063 0.003,-0.092 10e-4,-0.028 0.002,-0.054 0.002,-0.076 -0.011,0.012 -0.021,0.021 -0.029,0.03 -0.008,0.009 -0.017,0.017 -0.026,0.024 -0.009,0.007 -0.018,0.016 -0.028,0.025 -0.01,0.008 -0.021,0.019 -0.035,0.03 L -3.044,4.522 -3.138,4.402 -2.764,4.11 h 0.146 v 1.43 z"
                       id="path265"
                       inkscape:connector-curvature="0"
                       style="fill:#787878" />
                  </g>
                </g>
              </g>
            </g>
          </g>
          <g
             id="g279">
            <path
               d="M 0.18,13.536 1.26,11.015 2.7,12.453 Z"
               id="path277"
               inkscape:connector-curvature="0" />
          </g>
          <g
             id="g283">
            <path
               d="m 0.54,16.776 1.08,-2.521 1.438,1.438 z"
               id="path281"
               inkscape:connector-curvature="0" />
          </g>
        </g>
      </g>
    </g>
  </g>
  <g
     partID="854145330"
     id="g337"
     transform="matrix(0.93983666,0,0,0.91642868,6.6885297,6.4056792)">
    <g
       transform="translate(252.623)"
       id="g335">
      <g
         id="g333">
        <rect
           height="28.801001"
           y="0.514"
           x="7.5500002"
           width="14.401"
           id="rect293"
           style="fill:#ffffff;stroke:#000000;stroke-width:0.89999998;stroke-linecap:round;stroke-linejoin:round" />
        <g
           transform="translate(6.47347,20)"
           id="g305">
          <g
             id="g303">
            <g
               transform="rotate(-90)"
               id="g301">
              <g
                 id="g299">
                <g
                   transform="rotate(90,-0.34785,3.90375)"
                   id="g297">
                  <text
                     font-size="4.252"
                     id="text295"
                     style="font-size:4.25199986px;font-family:DroidSans">USB</text>
                </g>
              </g>
            </g>
          </g>
        </g>
        <line
           y2="4.1149998"
           y1="4.1149998"
           id="connector3pin"
           x1="0.34999999"
           x2="7.5500002"
           style="fill:none;stroke:#787878;stroke-width:0.75;stroke-linecap:round" />
        <g
           points="0,4.468,0.49,4.468,0.49,3.733,0,3.733"
           id="connector3terminal"
           style="fill:none" />
        <g
           transform="translate(3.2622,3.0652)"
           id="g311">
          <text
             font-size="2.5"
             id="text309"
             style="font-size:2.5px;font-family:DroidSans;fill:#8c8c8c">4</text>
        </g>
        <line
           y2="11.315"
           y1="11.315"
           id="line313"
           x1="0.34999999"
           x2="7.5500002"
           style="fill:none;stroke:#787878;stroke-width:0.75;stroke-linecap:round" />
        <g
           points="0.583,11.681,0.583,10.952,0,10.952,0,11.681"
           id="g315"
           style="fill:none" />
        <g
           transform="translate(3.2622,10.2644)"
           id="g319">
          <text
             font-size="2.5"
             id="text317"
             style="font-size:2.5px;font-family:DroidSans;fill:#8c8c8c">3</text>
        </g>
        <line
           y2="18.514"
           y1="18.514"
           id="connector4pin"
           x1="0.34999999"
           x2="7.5500002"
           style="fill:none;stroke:#787878;stroke-width:0.75;stroke-linecap:round" />
        <g
           height="0.729"
           y="18.16"
           width="0.521"
           id="connector4terminal"
           style="fill:none" />
        <g
           transform="translate(3.2622,17.4656)"
           id="g325">
          <text
             font-size="2.5"
             id="text323"
             style="font-size:2.5px;font-family:DroidSans;fill:#8c8c8c">5</text>
        </g>
        <line
           y2="25.714001"
           y1="25.714001"
           id="connector5pin"
           x1="0.34999999"
           x2="7.5500002"
           style="fill:none;stroke:#787878;stroke-width:0.75;stroke-linecap:round" />
        <g
           height="0.75"
           y="25.348"
           width="0.521"
           id="connector5terminal"
           style="fill:none" />
        <g
           transform="translate(3.2622,24.6648)"
           id="g331">
          <text
             font-size="2.5"
             id="text329"
             style="font-size:2.5px;font-family:DroidSans;fill:#8c8c8c">6</text>
        </g>
      </g>
    </g>
  </g>
  <g
     partID="854115140"
     id="g423"
     transform="matrix(0.93983666,0,0,0.91642868,6.6885297,6.4056792)">
    <g
       transform="translate(144.382,90.1585)"
       id="g421">
      <g
         id="g419">
        <rect
           height="43.200001"
           y="0.36000001"
           x="7.5500002"
           width="36"
           id="rect339"
           style="fill:#ffffff;stroke:#000000;stroke-width:0.89999998;stroke-linecap:round" />
        <path
           d="m 14.75,16.92 c 2.585,-0.199 4.519,-2.456 4.318,-5.04 C 18.891,9.572 17.056,7.738 14.75,7.56"
           id="path341"
           inkscape:connector-curvature="0"
           style="fill:none;stroke:#000000;stroke-width:0.5" />
        <path
           d="m 14.75,12.6 c -1.193,-0.348 -2.442,0.337 -2.79,1.53 -0.35,1.193 0.337,2.442 1.528,2.79 0.412,0.12 0.85,0.12 1.262,0"
           id="path343"
           inkscape:connector-curvature="0"
           style="fill:none;stroke:#000000;stroke-width:0.5" />
        <path
           d="m 14.75,24.12 c 3.181,-0.895 5.034,-4.199 4.14,-7.38 -0.563,-2.007 -2.133,-3.575 -4.14,-4.14"
           id="path345"
           inkscape:connector-curvature="0"
           style="fill:none;stroke:#000000;stroke-width:0.5" />
        <path
           d="m 14.75,19.8 c -1.193,-0.348 -2.442,0.337 -2.79,1.53 -0.35,1.192 0.337,2.442 1.528,2.791 0.412,0.12 0.85,0.12 1.262,0"
           id="path347"
           inkscape:connector-curvature="0"
           style="fill:none;stroke:#000000;stroke-width:0.5" />
        <path
           d="m 14.75,31.319 c 3.181,-0.928 5.008,-4.258 4.08,-7.439 -0.574,-1.967 -2.112,-3.506 -4.08,-4.08"
           id="path349"
           inkscape:connector-curvature="0"
           style="fill:none;stroke:#000000;stroke-width:0.5" />
        <path
           d="m 14.75,27 c -1.193,-0.349 -2.442,0.337 -2.79,1.53 -0.35,1.191 0.337,2.441 1.528,2.789 0.412,0.121 0.85,0.121 1.262,0"
           id="path351"
           inkscape:connector-curvature="0"
           style="fill:none;stroke:#000000;stroke-width:0.5" />
        <path
           d="m 14.75,36.36 c 2.585,-0.199 4.519,-2.455 4.318,-5.041 C 18.891,29.01 17.056,27.176 14.75,27"
           id="path353"
           inkscape:connector-curvature="0"
           style="fill:none;stroke:#000000;stroke-width:0.5" />
        <line
           y2="7.5599999"
           y1="7.5599999"
           x1="43.549999"
           x2="29.15"
           id="line355"
           style="fill:none;stroke:#000000;stroke-width:0.5;stroke-linecap:round" />
        <line
           y2="14.76"
           y1="7.5599999"
           x1="29.15"
           x2="29.15"
           id="line357"
           style="fill:none;stroke:#000000;stroke-width:0.5;stroke-linecap:round" />
        <line
           y2="36.360001"
           y1="36.360001"
           x1="43.549999"
           x2="29.15"
           id="line359"
           style="fill:none;stroke:#000000;stroke-width:0.5;stroke-linecap:round" />
        <line
           y2="29.16"
           y1="36.360001"
           x1="29.15"
           x2="29.15"
           id="line361"
           style="fill:none;stroke:#000000;stroke-width:0.5;stroke-linecap:round" />
        <line
           y2="21.959999"
           y1="21.959999"
           x1="43.549999"
           x2="36.349998"
           id="line363"
           style="fill:none;stroke:#000000;stroke-width:0.5;stroke-linecap:round" />
        <line
           y2="16.92"
           y1="21.959999"
           x1="36.349998"
           x2="31.309999"
           id="line365"
           style="fill:none;stroke:#000000;stroke-width:0.5;stroke-linecap:round" />
        <line
           y2="12.6"
           y1="14.76"
           x1="29.15"
           x2="31.309999"
           id="line367"
           style="fill:none;stroke:#000000;stroke-width:0.5;stroke-linecap:round" />
        <line
           y2="12.6"
           y1="14.76"
           x1="29.15"
           x2="26.99"
           id="line369"
           style="fill:none;stroke:#000000;stroke-width:0.5;stroke-linecap:round" />
        <line
           y2="31.319"
           y1="29.16"
           x1="29.15"
           x2="31.309999"
           id="line371"
           style="fill:none;stroke:#000000;stroke-width:0.5;stroke-linecap:round" />
        <line
           y2="31.319"
           y1="29.16"
           x1="29.15"
           x2="26.99"
           id="line373"
           style="fill:none;stroke:#000000;stroke-width:0.5;stroke-linecap:round" />
        <line
           y2="7.5599999"
           y1="7.5599999"
           x1="7.5500002"
           x2="14.75"
           id="line375"
           style="fill:none;stroke:#000000;stroke-width:0.5;stroke-linecap:round" />
        <line
           y2="36.360001"
           y1="36.360001"
           x1="7.5500002"
           x2="14.75"
           id="line377"
           style="fill:none;stroke:#000000;stroke-width:0.5;stroke-linecap:round" />
        <line
           y2="36.360001"
           y1="36.360001"
           id="line379"
           x1="0.34999999"
           x2="7.5500002"
           style="fill:none;stroke:#787878;stroke-width:0.75;stroke-linecap:round" />
        <g
           points="1.003,36.694,0,36.694,0,36.054,1.003,36.038"
           id="g381"
           style="fill:none" />
        <g
           transform="translate(3.2625,35.3096)"
           id="g385">
          <text
             font-size="2.5"
             id="text383"
             style="font-size:2.5px;font-family:DroidSans;fill:#8c8c8c">1</text>
        </g>
        <line
           y2="21.959999"
           y1="21.959999"
           id="line387"
           x1="50.75"
           x2="43.549999"
           style="fill:none;stroke:#787878;stroke-width:0.75;stroke-linecap:round" />
        <g
           points="50.05,22.304,51.1,22.272,51.1,21.616,50.019,21.647"
           id="g389"
           style="fill:none" />
        <g
           transform="translate(46.4622,20.9102)"
           id="g393">
          <text
             font-size="2.5"
             id="text391"
             style="font-size:2.5px;font-family:DroidSans;fill:#8c8c8c">2</text>
        </g>
        <line
           y2="36.360001"
           y1="36.360001"
           id="line395"
           x1="50.75"
           x2="43.549999"
           style="fill:none;stroke:#787878;stroke-width:0.75;stroke-linecap:round" />
        <g
           points="50.019,36.679,51.1,36.679,51.1,35.991,50.05,36.054"
           id="g397"
           style="fill:none" />
        <g
           transform="translate(46.4622,35.3096)"
           id="g401">
          <text
             font-size="2.5"
             id="text399"
             style="font-size:2.5px;font-family:DroidSans;fill:#8c8c8c">3</text>
        </g>
        <line
           y2="7.5599999"
           y1="7.5599999"
           id="line403"
           x1="50.75"
           x2="43.549999"
           style="fill:none;stroke:#787878;stroke-width:0.75;stroke-linecap:round" />
        <g
           points="50.05,7.897,51.1,7.897,51.1,7.21,49.988,7.179"
           id="g405"
           style="fill:none" />
        <g
           transform="translate(46.4622,6.5098)"
           id="g409">
          <text
             font-size="2.5"
             id="text407"
             style="font-size:2.5px;font-family:DroidSans;fill:#8c8c8c">4</text>
        </g>
        <line
           y2="7.5599999"
           y1="7.5599999"
           id="line411"
           x1="0.34999999"
           x2="7.5500002"
           style="fill:none;stroke:#787878;stroke-width:0.75;stroke-linecap:round" />
        <g
           points="1.05,7.897,0,7.897,0,7.226,1.05,7.241"
           id="g413"
           style="fill:none" />
        <g
           transform="translate(3.2625,6.5098)"
           id="g417">
          <text
             font-size="2.5"
             id="text415"
             style="font-size:2.5px;font-family:DroidSans;fill:#8c8c8c">5</text>
        </g>
      </g>
    </g>
  </g>
  <g
     partID="854117260"
     id="g553"
     transform="matrix(0.93983666,0,0,0.91642868,6.6885297,6.4056792)">
    <g
       transform="translate(174.043,83.6845)"
       id="g551">
      <g
         transform="matrix(0,-1,-1,0,0,0)"
         id="g549">
        <g
           id="g547">
          <rect
             height="21.601"
             y="0.36000001"
             x="0.36000001"
             width="50.398998"
             id="rect425"
             style="fill:#ffffff;stroke:#000000;stroke-width:0.89999998;stroke-linecap:round;stroke-linejoin:round" />
          <line
             y2="16.92"
             y1="16.92"
             x1="17.639999"
             x2="19.799999"
             id="line427"
             style="fill:none;stroke:#000000;stroke-width:0.5;stroke-linecap:round" />
          <line
             y2="16.92"
             y1="16.92"
             x1="19.799999"
             x2="21.959999"
             id="line429"
             style="fill:none;stroke:#000000;stroke-width:0.5;stroke-linecap:round" />
          <line
             y2="16.92"
             y1="16.92"
             x1="21.959999"
             x2="26.280001"
             id="line431"
             style="fill:none;stroke:#000000;stroke-width:0.5;stroke-linecap:round" />
          <line
             y2="13.32"
             y1="13.32"
             x1="17.639999"
             x2="21.959999"
             id="line433"
             style="fill:none;stroke:#000000;stroke-width:0.5;stroke-linecap:round" />
          <line
             y2="13.32"
             y1="13.32"
             x1="21.959999"
             x2="24.120001"
             id="line435"
             style="fill:none;stroke:#000000;stroke-width:0.5;stroke-linecap:round" />
          <line
             y2="13.32"
             y1="13.32"
             x1="24.120001"
             x2="26.280001"
             id="line437"
             style="fill:none;stroke:#000000;stroke-width:0.5;stroke-linecap:round" />
          <line
             y2="13.32"
             y1="16.92"
             x1="19.799999"
             x2="17.639999"
             id="line439"
             style="fill:none;stroke:#000000;stroke-width:0.5;stroke-linecap:round" />
          <line
             y2="13.32"
             y1="16.92"
             x1="19.799999"
             x2="21.959999"
             id="line441"
             style="fill:none;stroke:#000000;stroke-width:0.5;stroke-linecap:round" />
          <line
             y2="13.32"
             y1="16.92"
             x1="21.959999"
             x2="24.120001"
             id="line443"
             style="fill:none;stroke:#000000;stroke-width:0.5;stroke-linecap:round" />
          <line
             y2="16.92"
             y1="13.32"
             x1="24.120001"
             x2="26.280001"
             id="line445"
             style="fill:none;stroke:#000000;stroke-width:0.5;stroke-linecap:round" />
          <line
             y2="16.92"
             y1="21.959999"
             x1="21.959999"
             x2="21.959999"
             id="line447"
             style="fill:none;stroke:#000000;stroke-width:0.5;stroke-linecap:round" />
          <line
             y2="7.5599999"
             y1="21.959999"
             x1="7.5599999"
             x2="7.5599999"
             id="line449"
             style="fill:none;stroke:#000000;stroke-width:0.5;stroke-linecap:round" />
          <line
             y2="7.5599999"
             y1="7.5599999"
             x1="7.5599999"
             x2="21.959999"
             id="line451"
             style="fill:none;stroke:#000000;stroke-width:0.5;stroke-linecap:round" />
          <line
             y2="13.32"
             y1="7.5599999"
             x1="21.959999"
             x2="21.959999"
             id="line453"
             style="fill:none;stroke:#000000;stroke-width:0.5;stroke-linecap:round" />
          <line
             y2="16.92"
             y1="16.92"
             x1="34.201"
             x2="36.360001"
             id="line455"
             style="fill:none;stroke:#000000;stroke-width:0.5;stroke-linecap:round" />
          <line
             y2="16.92"
             y1="16.92"
             x1="36.360001"
             x2="38.52"
             id="line457"
             style="fill:none;stroke:#000000;stroke-width:0.5;stroke-linecap:round" />
          <line
             y2="13.32"
             y1="13.32"
             x1="34.201"
             x2="36.360001"
             id="line459"
             style="fill:none;stroke:#000000;stroke-width:0.5;stroke-linecap:round" />
          <line
             y2="13.32"
             y1="13.32"
             x1="36.360001"
             x2="38.52"
             id="line461"
             style="fill:none;stroke:#000000;stroke-width:0.5;stroke-linecap:round" />
          <line
             y2="13.32"
             y1="16.92"
             x1="34.201"
             x2="36.360001"
             id="line463"
             style="fill:none;stroke:#000000;stroke-width:0.5;stroke-linecap:round" />
          <line
             y2="16.92"
             y1="13.32"
             x1="36.360001"
             x2="38.52"
             id="line465"
             style="fill:none;stroke:#000000;stroke-width:0.5;stroke-linecap:round" />
          <line
             y2="16.92"
             y1="21.959999"
             x1="36.360001"
             x2="36.360001"
             id="line467"
             style="fill:none;stroke:#000000;stroke-width:0.5;stroke-linecap:round" />
          <line
             y2="7.5599999"
             y1="13.32"
             x1="36.360001"
             x2="36.360001"
             id="line469"
             style="fill:none;stroke:#000000;stroke-width:0.5;stroke-linecap:round" />
          <line
             y2="7.5599999"
             y1="7.5599999"
             x1="36.360001"
             x2="43.560001"
             id="line471"
             style="fill:none;stroke:#000000;stroke-width:0.5;stroke-linecap:round" />
          <line
             y2="21.959999"
             y1="7.5599999"
             x1="43.560001"
             x2="43.560001"
             id="line473"
             style="fill:none;stroke:#000000;stroke-width:0.5;stroke-linecap:round" />
          <line
             y2="15.297"
             y1="18.360001"
             x1="32.041"
             x2="28.976999"
             id="line475"
             style="fill:none;stroke:#000000;stroke-width:0.5;stroke-linecap:round" />
          <line
             y2="12.185"
             y1="15.12"
             x1="32.400002"
             x2="29.464001"
             id="line477"
             style="fill:none;stroke:#000000;stroke-width:0.5;stroke-linecap:round" />
          <line
             y2="21.959999"
             y1="29.159"
             id="line479"
             x1="7.5599999"
             x2="7.5599999"
             style="fill:none;stroke:#787878;stroke-width:0.75;stroke-linecap:round" />
          <g
             height="0.001"
             y="29.159"
             x="7.56"
             width="0"
             id="g481"
             style="fill:none" />
          <g
             transform="translate(2.29658,9.017)"
             id="g493">
            <g
               id="g491">
              <g
                 transform="rotate(-90)"
                 id="g489">
                <g
                   id="g487">
                  <g
                     transform="translate(-17.2323,4.2137)"
                     id="g485">
                    <text
                       font-size="2.5"
                       id="text483"
                       style="font-size:2.5px;font-family:DroidSans;fill:#8c8c8c">1</text>
                  </g>
                </g>
              </g>
            </g>
          </g>
          <line
             y2="21.959999"
             y1="29.159"
             id="line495"
             x1="21.959999"
             x2="21.959999"
             style="fill:none;stroke:#787878;stroke-width:0.75;stroke-linecap:round" />
          <g
             height="0.001"
             y="29.159"
             x="21.96"
             width="0"
             id="g497"
             style="fill:none" />
          <g
             transform="translate(7.37658,9.017)"
             id="g509">
            <g
               id="g507">
              <g
                 transform="rotate(-90)"
                 id="g505">
                <g
                   id="g503">
                  <g
                     transform="translate(-17.2323,13.5331)"
                     id="g501">
                    <text
                       font-size="2.5"
                       id="text499"
                       style="font-size:2.5px;font-family:DroidSans;fill:#8c8c8c">2</text>
                  </g>
                </g>
              </g>
            </g>
          </g>
          <line
             y2="21.959999"
             y1="29.159"
             id="line511"
             x1="36.360001"
             x2="36.360001"
             style="fill:none;stroke:#787878;stroke-width:0.75;stroke-linecap:round" />
          <g
             height="0.001"
             y="29.159"
             x="36.36"
             width="0.001"
             id="g513"
             style="fill:none" />
          <g
             transform="translate(12.4566,9.017)"
             id="g525">
            <g
               id="g523">
              <g
                 transform="rotate(-90)"
                 id="g521">
                <g
                   id="g519">
                  <g
                     transform="translate(-17.2323,22.8535)"
                     id="g517">
                    <text
                       font-size="2.5"
                       id="text515"
                       style="font-size:2.5px;font-family:DroidSans;fill:#8c8c8c">3</text>
                  </g>
                </g>
              </g>
            </g>
          </g>
          <line
             y2="21.959999"
             y1="29.159"
             id="line527"
             x1="43.560001"
             x2="43.560001"
             style="fill:none;stroke:#787878;stroke-width:0.75;stroke-linecap:round" />
          <g
             height="0.001"
             y="29.159"
             x="43.56"
             width="0"
             id="g529"
             style="fill:none" />
          <g
             transform="translate(14.9966,9.017)"
             id="g541">
            <g
               id="g539">
              <g
                 transform="rotate(-90)"
                 id="g537">
                <g
                   id="g535">
                  <g
                     transform="translate(-17.2323,27.5136)"
                     id="g533">
                    <text
                       font-size="2.5"
                       id="text531"
                       style="font-size:2.5px;font-family:DroidSans;fill:#8c8c8c">4</text>
                  </g>
                </g>
              </g>
            </g>
          </g>
          <path
             d="m 28.08,14.4 1.08,2.521 1.44,-1.44 z"
             id="path543"
             inkscape:connector-curvature="0" />
          <path
             d="m 28.44,11.16 1.08,2.52 1.44,-1.44 z"
             id="path545"
             inkscape:connector-curvature="0" />
        </g>
      </g>
    </g>
  </g>
  <g
     partID="854117510"
     id="g589"
     transform="matrix(0.93983666,0,0,0.91642868,6.6885297,6.4056792)">
    <g
       transform="translate(108.533,44.2283)"
       id="g587">
      <g
         id="g585">
        <line
           y2="0.21600001"
           class="other"
           y1="3.096"
           x1="7.5500202"
           x2="8.6300297"
           id="line555"
           style="stroke:#000000;stroke-width:0.43200201;stroke-linecap:round" />
        <line
           y2="5.9759998"
           class="other"
           y1="0.21600001"
           x1="8.6300297"
           x2="10.43"
           id="line557"
           style="stroke:#000000;stroke-width:0.43200201;stroke-linecap:round" />
        <line
           y2="0.21600001"
           class="other"
           y1="5.9759998"
           x1="10.43"
           x2="12.23"
           id="line559"
           style="stroke:#000000;stroke-width:0.43200201;stroke-linecap:round" />
        <line
           y2="5.9759998"
           class="other"
           y1="0.21600001"
           x1="12.23"
           x2="14.03"
           id="line561"
           style="stroke:#000000;stroke-width:0.43200201;stroke-linecap:round" />
        <line
           y2="0.21600001"
           class="other"
           y1="5.9759998"
           x1="14.03"
           x2="15.8301"
           id="line563"
           style="stroke:#000000;stroke-width:0.43200201;stroke-linecap:round" />
        <line
           y2="5.9759998"
           class="other"
           y1="0.21600001"
           x1="15.8301"
           x2="17.6301"
           id="line565"
           style="stroke:#000000;stroke-width:0.43200201;stroke-linecap:round" />
        <line
           y2="0.21600001"
           class="other"
           y1="5.9759998"
           x1="17.6301"
           x2="19.430099"
           id="line567"
           style="stroke:#000000;stroke-width:0.43200201;stroke-linecap:round" />
        <line
           y2="5.9759998"
           class="other"
           y1="0.21600001"
           x1="19.430099"
           x2="21.230101"
           id="line569"
           style="stroke:#000000;stroke-width:0.43200201;stroke-linecap:round" />
        <line
           y2="3.096"
           class="other"
           y1="5.9759998"
           x1="21.230101"
           x2="21.9501"
           id="line571"
           style="stroke:#000000;stroke-width:0.43200201;stroke-linecap:round" />
        <line
           connectorname="2"
           y2="3.096"
           class="pin"
           y1="3.096"
           id="line573"
           x1="29.1502"
           x2="21.9501"
           style="stroke:#787878;stroke-width:0.700001;stroke-linecap:round" />
        <g
           class="terminal"
           height="0.000283465"
           y="3.096"
           x="29.1502"
           width="0.000283466"
           id="g575"
           style="fill:none;stroke:none;stroke-width:0" />
        <text
           font-size="2.50001"
           class="text"
           y="2.046"
           x="25.5501"
           id="text577"
           style="font-size:2.50001001px;font-family:'Droid Sans';text-anchor:middle;fill:#8c8c8c;stroke:none;stroke-width:0">2</text>
        <line
           connectorname="1"
           y2="3.096"
           class="pin"
           y1="3.096"
           id="line579"
           x1="0.35000101"
           x2="7.5500202"
           style="stroke:#787878;stroke-width:0.700001;stroke-linecap:round" />
        <g
           class="terminal"
           height="0.000283465"
           y="3.096"
           x="0.350001"
           width="0.000283466"
           id="g581"
           style="fill:none;stroke:none;stroke-width:0" />
        <text
           font-size="2.50001"
           class="text"
           y="2.046"
           x="3.9500101"
           id="text583"
           style="font-size:2.50001001px;font-family:'Droid Sans';text-anchor:middle;fill:#8c8c8c;stroke:none;stroke-width:0">1</text>
      </g>
    </g>
  </g>
  <g
     partID="854119080"
     id="g643"
     transform="matrix(0.93983666,0,0,0.91642868,6.6885297,6.4056792)">
    <g
       transform="translate(58.7434)"
       id="g641">
      <g
         id="g637"
         transform="scale(-1,1)">
        <rect
           style="fill:#ffffff;stroke:#000000;stroke-width:0.89999998;stroke-linecap:round;stroke-linejoin:round"
           id="rect591"
           width="14.401"
           x="7.5500002"
           y="0.514"
           height="28.801001" />
        <g
           id="g603"
           transform="matrix(-1,0,0,1,23.775486,20)">
          <g
             id="g601">
            <g
               id="g599"
               transform="rotate(-90)">
              <g
                 id="g597">
                <g
                   id="g595"
                   transform="rotate(90,-0.34785,3.90375)">
                  <text
                     style="font-size:4.25199986px;font-family:DroidSans"
                     id="text593"
                     font-size="4.252">USB</text>
                </g>
              </g>
            </g>
          </g>
        </g>
        <line
           style="fill:none;stroke:#787878;stroke-width:0.75;stroke-linecap:round"
           x2="7.5500002"
           x1="0.34999999"
           id="line605"
           y1="4.1149998"
           y2="4.1149998" />
        <g
           style="fill:none"
           id="g607"
           points="0,4.468,0.49,4.468,0.49,3.733,0,3.733" />
        <g
           id="g611"
           transform="translate(3.2622,3.0652)">
          <text
             style="font-size:2.5px;font-family:DroidSans;fill:#8c8c8c"
             id="text609"
             font-size="2.5">4</text>
        </g>
        <line
           style="fill:none;stroke:#787878;stroke-width:0.75;stroke-linecap:round"
           x2="7.5500002"
           x1="0.34999999"
           id="line613"
           y1="11.315"
           y2="11.315" />
        <g
           style="fill:none"
           id="g615"
           points="0.583,11.681,0.583,10.952,0,10.952,0,11.681" />
        <g
           id="g619"
           transform="translate(3.2622,10.2644)">
          <text
             style="font-size:2.5px;font-family:DroidSans;fill:#8c8c8c"
             id="text617"
             font-size="2.5">3</text>
        </g>
        <line
           style="fill:none;stroke:#787878;stroke-width:0.75;stroke-linecap:round"
           x2="7.5500002"
           x1="0.34999999"
           id="line621"
           y1="18.514"
           y2="18.514" />
        <g
           style="fill:none"
           id="g623"
           width="0.521"
           y="18.16"
           height="0.729" />
        <g
           id="g627"
           transform="translate(3.2622,17.4656)">
          <text
             style="font-size:2.5px;font-family:DroidSans;fill:#8c8c8c"
             id="text625"
             font-size="2.5">5</text>
        </g>
        <line
           style="fill:none;stroke:#787878;stroke-width:0.75;stroke-linecap:round"
           x2="7.5500002"
           x1="0.34999999"
           id="line629"
           y1="25.714001"
           y2="25.714001" />
        <g
           style="fill:none"
           id="g631"
           width="0.521"
           y="25.348"
           height="0.75" />
        <g
           id="g635"
           transform="translate(3.2622,24.6648)">
          <text
             style="font-size:2.5px;font-family:DroidSans;fill:#8c8c8c"
             id="text633"
             font-size="2.5">6</text>
        </g>
      </g>
    </g>
  </g>
  <g
     partID="854195951"
     id="g651"
     transform="matrix(-0.93983666,0,0,-0.91642868,557.02013,27.32726)">
    <g
       transform="translate(303.744,14.9041)"
       id="g649">
      <g
         transform="scale(-1)"
         id="g647">
        <g
           id="schematicText">
          <text
             font-size="4.8"
             y="5.2800002"
             x="4.0799999"
             id="label"
             style="font-size:4.80000019px;font-family:'Droid Sans';fill:#000000">バッテリー</text>
        </g>
      </g>
    </g>
  </g>
  <g
     partID="854195931"
     id="g661"
     transform="matrix(-0.93983666,0,0,-0.91642868,41.11184,27.216601)">
    <g
       transform="translate(29.6872,14.9281)"
       id="g659">
      <g
         transform="scale(-1)"
         id="g657">
        <g
           id="g655">
          <text
             font-size="4.8"
             y="5.2800002"
             x="4.0799999"
             id="text653"
             style="font-size:4.80000019px;font-family:'Droid Sans';fill:#000000">充電器</text>
        </g>
      </g>
    </g>
  </g>
  <g
     partID="854167751"
     id="g669"
     transform="matrix(0.93983666,0,0,0.91642868,3.5923275,6.4056792)">
    <g
       transform="translate(234.591,7.69688)"
       id="g667">
      <g
         id="g665">
        <text
           font-size="4.8"
           y="5.2800002"
           x="4.0799999"
           id="text663"
           style="font-size:4.80000019px;font-family:'Droid Sans';fill:#000000">NC</text>
      </g>
    </g>
  </g>
  <g
     partID="854167731"
     id="g677"
     transform="matrix(0.93983666,0,0,0.91642868,3.5923275,6.4056792)">
    <g
       transform="translate(234.591,0.49688)"
       id="g675">
      <g
         id="g673">
        <text
           font-size="4.8"
           y="5.2800002"
           x="4.0799999"
           id="text671"
           style="font-size:4.80000019px;font-family:'Droid Sans';fill:#000000">NC</text>
      </g>
    </g>
  </g>
  <g
     partID="854167671"
     id="g685"
     transform="matrix(0.93983666,0,0,0.91642868,6.6885297,6.4056792)">
    <g
       transform="translate(65.6792,7.72088)"
       id="g683">
      <g
         id="g681">
        <text
           font-size="4.8"
           y="5.2800002"
           x="4.0799999"
           id="text679"
           style="font-size:4.80000019px;font-family:'Droid Sans';fill:#000000">NC</text>
      </g>
    </g>
  </g>
  <g
     partID="854167621"
     id="g693"
     transform="matrix(0.93983666,0,0,0.91642868,6.6885297,6.4056792)">
    <g
       transform="translate(65.68,0.52088)"
       id="g691">
      <g
         id="g689">
        <text
           font-size="4.8"
           y="5.2800002"
           x="4.0799999"
           id="text687"
           style="font-size:4.80000019px;font-family:'Droid Sans';fill:#000000">NC</text>
      </g>
    </g>
  </g>
  <g
     partID="854195971"
     id="g701"
     transform="matrix(0.93983666,0,0,0.91642868,5.1404308,6.4056792)">
    <g
       transform="translate(21.9992,36.5209)"
       id="g699">
      <g
         id="g697">
        <text
           font-size="4.8"
           y="5.2800002"
           x="0.47999999"
           id="text695"
           style="font-size:4.80000019px;font-family:'Droid Sans';fill:#000000">RPi GND</text>
      </g>
    </g>
  </g>
  <g
     partID="854195991"
     id="g709"
     transform="matrix(0.93983666,0,0,0.91642868,5.9144848,6.4056792)">
    <g
       transform="translate(0,43.7209)"
       id="g707">
      <g
         id="g705">
        <text
           font-size="4.8"
           y="5.2800002"
           x="0.47999999"
           id="text703"
           style="font-size:4.80000019px;font-family:'Droid Sans';fill:#000000">RPi GPIO17 (OUT)</text>
      </g>
    </g>
  </g>
  <g
     partID="854245700"
     id="g713"
     transform="matrix(0.93983666,0,0,0.91642868,6.6885297,6.4056792)">
    <line
       x1="194.92599"
       y1="97.696503"
       x2="194.94099"
       y2="126.493"
       id="line711"
       style="stroke:#25cc35;stroke-width:0.40000001;stroke-linecap:round" />
  </g>
  <g
     partID="854245030"
     id="g717"
     transform="matrix(0.93983666,0,0,0.91642868,6.6885297,6.4056792)">
    <line
       x1="144.883"
       y1="61.724499"
       x2="130.483"
       y2="61.724499"
       id="line715"
       style="stroke:#cc1414;stroke-width:0.69999802;stroke-linecap:round" />
  </g>
  <ellipse
     cx="142.85446"
     cy="62.971703"
     id="circle719"
     style="fill:#000000;stroke:none;stroke-width:0"
     rx="1.3533612"
     ry="1.319659" />
  <g
     partID="854245270"
     id="g723"
     transform="matrix(0.93983666,0,0,0.91642868,6.6885297,6.4056792)">
    <line
       x1="130.39799"
       y1="97.5942"
       x2="130.48399"
       y2="90.524597"
       id="line721"
       style="stroke:#cc1414;stroke-width:0.69999802;stroke-linecap:round" />
  </g>
  <g
     partID="854245160"
     id="g727"
     transform="matrix(0.93983666,0,0,0.91642868,6.6885297,6.4056792)">
    <line
       x1="139.446"
       y1="97.929298"
       x2="130.39799"
       y2="97.594101"
       id="line725"
       style="stroke:#cc1414;stroke-width:0.69999802;stroke-linecap:round" />
  </g>
  <g
     partID="854216230"
     id="g731"
     transform="matrix(0.93983666,0,0,0.91642868,6.6885297,6.4056792)">
    <line
       x1="45.083199"
       y1="47.324501"
       x2="108.883"
       y2="47.324501"
       id="line729"
       style="stroke:#cc1414;stroke-width:0.69999802;stroke-linecap:round" />
  </g>
  <g
     partID="854196040"
     id="g735"
     transform="matrix(0.93983666,0,0,0.91642868,6.6885297,6.4056792)">
    <line
       x1="144.883"
       y1="40.1245"
       x2="44.082401"
       y2="40.1245"
       id="line733"
       style="stroke:#cc1414;stroke-width:0.69999802;stroke-linecap:round" />
  </g>
  <g
     partID="854163520"
     id="g739"
     transform="matrix(0.93983666,0,0,0.91642868,6.6885297,6.4056792)">
    <line
       x1="65.683197"
       y1="4.1244798"
       x2="58.498699"
       y2="4.1004901"
       id="line737"
       style="stroke:#404040;stroke-width:0.69999802;stroke-linecap:round" />
  </g>
  <g
     partID="854163590"
     id="g743"
     transform="matrix(0.93983666,0,0,0.91642868,6.6885297,6.4056792)">
    <line
       x1="65.683197"
       y1="11.3245"
       x2="58.452202"
       y2="11.3165"
       id="line741"
       style="stroke:#404040;stroke-width:0.69999802;stroke-linecap:round" />
  </g>
  <g
     partID="854167770"
     id="g747"
     transform="matrix(0.93983666,0,0,0.91642868,6.6885297,6.4056792)">
    <line
       x1="245.668"
       y1="4.1004801"
       x2="252.868"
       y2="4.1004801"
       id="line745"
       style="stroke:#404040;stroke-width:0.69999802;stroke-linecap:round" />
  </g>
  <g
     partID="854167880"
     id="g751"
     transform="matrix(0.93983666,0,0,0.91642868,6.6885297,6.4056792)">
    <line
       x1="245.668"
       y1="11.3005"
       x2="252.914"
       y2="11.3165"
       id="line749"
       style="stroke:#404040;stroke-width:0.69999802;stroke-linecap:round" />
  </g>
  <g
     partID="854134070"
     id="g755"
     transform="matrix(0.93983666,0,0,0.91642868,6.6885297,6.4056792)">
    <line
       x1="137.722"
       y1="126.597"
       x2="137.683"
       y2="119.325"
       id="line753"
       style="stroke:#cc1414;stroke-width:0.69999802;stroke-linecap:round" />
  </g>
  <g
     partID="854133920"
     id="g759"
     transform="matrix(0.93983666,0,0,0.91642868,6.6885297,6.4056792)">
    <line
       x1="144.883"
       y1="126.524"
       x2="137.72099"
       y2="126.597"
       id="line757"
       style="stroke:#cc1414;stroke-width:0.69999802;stroke-linecap:round" />
  </g>
  <ellipse
     cx="142.85446"
     cy="122.35603"
     id="circle761"
     style="fill:#000000;stroke:none;stroke-width:0"
     rx="1.3533612"
     ry="1.319659" />
  <g
     partID="854134220"
     id="g765"
     transform="matrix(0.93983666,0,0,0.91642868,6.6885297,6.4056792)">
    <line
       x1="144.90601"
       y1="97.720001"
       x2="139.446"
       y2="97.929298"
       id="line763"
       style="stroke:#cc1414;stroke-width:0.69999802;stroke-linecap:round" />
  </g>
  <ellipse
     cx="142.87691"
     cy="95.958832"
     id="circle767"
     style="fill:#000000;stroke:none;stroke-width:0"
     rx="1.3533612"
     ry="1.319659" />
  <g
     partID="854134480"
     id="g771"
     transform="matrix(0.93983666,0,0,0.91642868,6.6885297,6.4056792)">
    <line
       x1="238.468"
       y1="54.500999"
       x2="238.483"
       y2="126.524"
       id="line769"
       style="stroke:#cc1414;stroke-width:0.69999802;stroke-linecap:round" />
  </g>
  <g
     partID="854136230"
     id="g775"
     transform="matrix(0.93983666,0,0,0.91642868,6.6885297,6.4056792)">
    <line
       x1="209.683"
       y1="126.524"
       x2="194.94099"
       y2="126.493"
       id="line773"
       style="stroke:#cc1414;stroke-width:0.69999802;stroke-linecap:round" />
  </g>
  <ellipse
     cx="189.90108"
     cy="122.32772"
     id="circle777"
     style="fill:#000000;stroke:none;stroke-width:0"
     rx="1.3533612"
     ry="1.319659" />
  <g
     partID="854145890"
     id="g781"
     transform="matrix(0.93983666,0,0,0.91642868,6.6885297,6.4056792)">
    <line
       x1="252.883"
       y1="25.723"
       x2="58.4832"
       y2="25.723"
       id="line779"
       style="stroke:#cc1414;stroke-width:0.69999802;stroke-linecap:round" />
  </g>
  <ellipse
     cx="244.35672"
     cy="29.979002"
     id="circle783"
     style="fill:#000000;stroke:none;stroke-width:0"
     rx="1.3533612"
     ry="1.319659" />
  <g
     partID="854146700"
     id="g787"
     transform="matrix(0.93983666,0,0,0.91642868,6.6885297,6.4056792)">
    <line
       x1="144.894"
       y1="18.4466"
       x2="58.4832"
       y2="18.5245"
       id="line785"
       style="stroke:#cc1414;stroke-width:0.69999802;stroke-linecap:round" />
  </g>
  <ellipse
     cx="61.653049"
     cy="23.382046"
     id="circle789"
     style="fill:#000000;stroke:none;stroke-width:0"
     rx="1.3533612"
     ry="1.319659" />
  <g
     partID="854196540"
     id="g793"
     transform="matrix(0.93983666,0,0,0.91642868,6.6885297,6.4056792)">
    <line
       x1="144.894"
       y1="61.668999"
       x2="144.894"
       y2="18.4466"
       id="line791"
       style="stroke:#cc1414;stroke-width:0.69999802;stroke-linecap:round" />
  </g>
  <g
     partID="854146630"
     id="g797"
     transform="matrix(0.93983666,0,0,0.91642868,6.6885297,6.4056792)">
    <line
       x1="144.883"
       y1="61.724499"
       x2="144.894"
       y2="61.668999"
       id="line795"
       style="stroke:#cc1414;stroke-width:0.69999802;stroke-linecap:round" />
  </g>
  <ellipse
     cx="142.85446"
     cy="62.971703"
     id="circle799"
     style="fill:#000000;stroke:none;stroke-width:0"
     rx="1.3533612"
     ry="1.319659" />
  <g
     partID="854147140"
     id="g803"
     transform="matrix(0.93983666,0,0,0.91642868,6.6885297,6.4056792)">
    <line
       x1="202.461"
       y1="18.446199"
       x2="58.483101"
       y2="18.5245"
       id="line801"
       style="stroke:#cc1414;stroke-width:0.69999802;stroke-linecap:round" />
  </g>
  <ellipse
     cx="61.652958"
     cy="23.382046"
     id="circle805"
     style="fill:#000000;stroke:none;stroke-width:0"
     rx="1.3533612"
     ry="1.319659" />
  <g
     partID="854147030"
     id="g809"
     transform="matrix(0.93983666,0,0,0.91642868,6.6885297,6.4056792)">
    <line
       x1="202.461"
       y1="112.064"
       x2="202.461"
       y2="18.446199"
       id="line807"
       style="stroke:#cc1414;stroke-width:0.69999802;stroke-linecap:round" />
  </g>
  <g
     partID="854146920"
     id="g813"
     transform="matrix(0.93983666,0,0,0.91642868,6.6885297,6.4056792)">
    <line
       x1="194.94099"
       y1="112.118"
       x2="202.461"
       y2="112.064"
       id="line811"
       style="stroke:#cc1414;stroke-width:0.69999802;stroke-linecap:round" />
  </g>
  <g
     partID="854117630"
     id="g817"
     transform="matrix(0.93983666,0,0,0.91642868,6.6885297,6.4056792)">
    <line
       x1="144.883"
       y1="47.324001"
       x2="137.683"
       y2="47.324501"
       id="line815"
       style="stroke:#cc1414;stroke-width:0.69999802;stroke-linecap:round" />
  </g>
  <g
     partID="854146370"
     id="g821"
     transform="matrix(0.93983666,0,0,0.91642868,6.6885297,6.4056792)">
    <line
       x1="144.894"
       y1="76.2024"
       x2="144.883"
       y2="76.124496"
       id="line819"
       style="stroke:#cc1414;stroke-width:0.69999802;stroke-linecap:round" />
  </g>
  <g
     partID="854117770"
     id="g825"
     transform="matrix(0.93983666,0,0,0.91642868,6.6885297,6.4056792)">
    <line
       x1="144.90601"
       y1="97.720001"
       x2="144.89301"
       y2="76.2024"
       id="line823"
       style="stroke:#cc1414;stroke-width:0.69999802;stroke-linecap:round" />
  </g>
  <ellipse
     cx="142.87691"
     cy="95.958832"
     id="circle827"
     style="fill:#000000;stroke:none;stroke-width:0"
     rx="1.3533612"
     ry="1.319659" />
  <g
     partID="854119540"
     id="g831"
     transform="matrix(0.93983666,0,0,0.91642868,6.6885297,6.4056792)">
    <line
       x1="209.633"
       y1="18.4466"
       x2="209.73599"
       y2="126.555"
       id="line829"
       style="stroke:#cc1414;stroke-width:0.69999802;stroke-linecap:round" />
  </g>
  <g
     partID="854119470"
     id="g835"
     transform="matrix(0.93983666,0,0,0.91642868,6.6885297,6.4056792)">
    <line
       x1="209.73599"
       y1="126.555"
       x2="194.94099"
       y2="126.494"
       id="line833"
       style="stroke:#cc1414;stroke-width:0.69999802;stroke-linecap:round" />
  </g>
  <ellipse
     cx="189.90108"
     cy="122.32863"
     id="circle837"
     style="fill:#000000;stroke:none;stroke-width:0"
     rx="1.3533612"
     ry="1.319659" />
  <g
     partID="854119400"
     id="g841"
     transform="matrix(0.93983666,0,0,0.91642868,6.6885297,6.4056792)">
    <line
       x1="252.883"
       y1="18.5245"
       x2="209.633"
       y2="18.4466"
       id="line839"
       style="stroke:#cc1414;stroke-width:0.69999802;stroke-linecap:round" />
  </g>
  <g
     partID="854150650"
     id="g845"
     transform="matrix(0.93983666,0,0,0.91642868,6.6885297,6.4056792)">
    <line
       x1="144.894"
       y1="140.942"
       x2="253.019"
       y2="140.86"
       id="line843"
       style="stroke:#cc1414;stroke-width:0.69999802;stroke-linecap:round" />
  </g>
  <g
     partID="854135000"
     id="g849"
     transform="matrix(0.93983666,0,0,0.91642868,6.6885297,6.4056792)">
    <line
       x1="253.019"
       y1="140.86"
       x2="252.883"
       y2="25.7237"
       id="line847"
       style="stroke:#cc1414;stroke-width:0.69999802;stroke-linecap:round" />
  </g>
  <ellipse
     cx="244.35672"
     cy="29.979637"
     id="circle851"
     style="fill:#000000;stroke:none;stroke-width:0"
     rx="1.3533612"
     ry="1.319659" />
  <g
     partID="854120470"
     id="g855"
     transform="matrix(0.93983666,0,0,0.91642868,6.6885297,6.4056792)">
    <line
       x1="144.883"
       y1="126.524"
       x2="144.894"
       y2="140.942"
       id="line853"
       style="stroke:#cc1414;stroke-width:0.69999802;stroke-linecap:round" />
  </g>
  <ellipse
     cx="142.85446"
     cy="122.35603"
     id="circle857"
     style="fill:#000000;stroke:none;stroke-width:0"
     rx="1.3533612"
     ry="1.319659" />
  <g
     partID="854134730"
     id="g861"
     transform="matrix(0.93983666,0,0,0.91642868,6.6885297,6.4056792)">
    <line
       x1="238.52299"
       y1="25.7836"
       x2="238.468"
       y2="32.900501"
       id="line859"
       style="stroke:#cc1414;stroke-width:0.69999802;stroke-linecap:round" />
  </g>
  <g
     partID="854120360"
     id="g865"
     transform="matrix(0.93983666,0,0,0.91642868,6.6885297,6.4056792)">
    <line
       x1="252.883"
       y1="25.723"
       x2="238.52299"
       y2="25.7836"
       id="line863"
       style="stroke:#cc1414;stroke-width:0.69999802;stroke-linecap:round" />
  </g>
  <ellipse
     cx="244.35672"
     cy="29.979002"
     id="circle867"
     style="fill:#000000;stroke:none;stroke-width:0"
     rx="1.3533612"
     ry="1.319659" />
  <g
     partID="854115140"
     id="partLabel"
     transform="matrix(0.93983666,0,0,0.91642868,6.6885297,6.4056792)">
    <g
       transform="translate(159.962,91.6361)"
       id="g874">
      <g
         font-size="3"
         font-style="normal"
         font-weight="normal"
         id="schematicLabel"
         style="font-style:normal;font-weight:normal;font-size:3px;font-family:DroidSans;fill:#000000;fill-opacity:1;stroke:none">
        <text
           x="0"
           y="2.25"
           id="text869">U1</text>
        <text
           x="0"
           y="5.25"
           id="text871">Y14H-1C-5DS</text>
      </g>
    </g>
  </g>
  <g
     partID="854117260"
     id="g887"
     transform="matrix(0.93983666,0,0,0.91642868,6.6885297,6.4056792)">
    <g
       transform="translate(155.234,26.672)"
       id="g885">
      <g
         id="g883">
        <g
           font-size="3"
           font-style="normal"
           font-weight="normal"
           id="g881"
           style="font-style:normal;font-weight:normal;font-size:3px;font-family:DroidSans;fill:#000000;fill-opacity:1;stroke:none">
          <text
             x="0"
             y="2.25"
             id="text877">U2</text>
          <text
             x="0"
             y="5.25"
             id="text879">TLP222AF</text>
        </g>
      </g>
    </g>
  </g>
  <g
     partID="854117510"
     id="g897"
     transform="matrix(0.93983666,0,0,0.91642868,6.6885297,6.4056792)">
    <g
       transform="translate(118.23,50.7958)"
       id="g895">
      <g
         font-size="3"
         font-style="normal"
         font-weight="normal"
         id="g893"
         style="font-style:normal;font-weight:normal;font-size:3px;font-family:DroidSans;fill:#000000;fill-opacity:1;stroke:none">
        <text
           x="0"
           y="2.25"
           id="text889">R1</text>
        <text
           x="0"
           y="5.25"
           id="text891">330Ω</text>
      </g>
    </g>
  </g>
  <g
     partID="854133890"
     id="g907"
     transform="matrix(0.93983666,0,0,0.91642868,6.6885297,6.4056792)">
    <g
       transform="translate(143.29,106.909)"
       id="g905">
      <g
         font-size="3"
         font-style="normal"
         font-weight="normal"
         id="g903"
         style="font-style:normal;font-weight:normal;font-size:3px;font-family:DroidSans;fill:#000000;fill-opacity:1;stroke:none">
        <text
           x="0"
           y="2.25"
           id="text899">D1</text>
        <text
           x="0"
           y="5.25"
           id="text901">1N4001</text>
      </g>
    </g>
  </g>
  <g
     partID="854134350"
     id="g917"
     transform="matrix(0.93983666,0,0,0.91642868,6.6885297,6.4056792)">
    <g
       transform="translate(220.033,116.406)"
       id="g915">
      <g
         font-size="3"
         font-style="normal"
         font-weight="normal"
         id="g913"
         style="font-style:normal;font-weight:normal;font-size:3px;font-family:DroidSans;fill:#000000;fill-opacity:1;stroke:none">
        <text
           x="0"
           y="2.25"
           id="text909">R2</text>
        <text
           x="0"
           y="5.25"
           id="text911">510Ω</text>
      </g>
    </g>
  </g>
  <g
     partID="854134380"
     id="g927"
     transform="matrix(0.93983666,0,0,0.91642868,6.6885297,6.4056792)">
    <g
       transform="translate(215.749,42.7957)"
       id="g925">
      <g
         font-size="3"
         font-style="normal"
         font-weight="normal"
         id="g923"
         style="font-style:normal;font-weight:normal;font-size:3px;font-family:DroidSans;fill:#000000;fill-opacity:1;stroke:none">
        <text
           x="0"
           y="2.25"
           id="text919">LED1</text>
        <text
           x="0"
           y="5.25"
           id="text921">Red (633nm)</text>
      </g>
    </g>
  </g>
  <g
     partID="854244950"
     id="g935"
     transform="matrix(0.93983666,0,0,0.91642868,6.6885297,6.4056792)">
    <g
       transform="translate(118.554,73.5772)"
       id="g933">
      <g
         font-size="5"
         font-style="normal"
         font-weight="normal"
         id="g931"
         style="font-style:normal;font-weight:normal;font-size:5px;font-family:DroidSans;fill:#000000;fill-opacity:1;stroke:none">
        <text
           x="0"
           y="3.75"
           id="text929">S1</text>
      </g>
    </g>
  </g>
</svg>
